{
  "name": "Comment",
  "base": "PersistedModel",
  "idInjection": true,
  "options": {
    "validateUpsert": true
  },
  "properties": {
    "body": {
      "type": "string",
      "required": true
    }
  },
  "validations": [],
  "relations": {
    "author": {
      "type": "belongsTo",
      "model": "Person",
      "foreignKey": ""
    },
    "task": {
      "type": "belongsTo",
      "model": "Task",
      "foreignKey": ""
    }
  },
  "acls": [
    {
      "accessType": "*",
      "principalType": "ROLE",
      "principalId": "$everyone",
      "permission": "DENY"
    },
    {
      "accessType": "*",
      "principalType": "ROLE",
      "principalId": "$authenticated",
      "permission": "ALLOW"
    }
  ],
  "methods": {}
}
